<?xml version="1.0" encoding="UTF-8"?>
<svg width="613px" height="613px" viewBox="0 0 613 613" version="1.1" xmlns="http://www.w3.org/2000/svg" xmlns:xlink="http://www.w3.org/1999/xlink">
    <!-- Generator: Sketch 48.1 (47250) - http://www.bohemiancoding.com/sketch -->
    <title>Shape</title>
    <desc>Created with Sketch.</desc>
    <defs></defs>
    <g id="Page-1" stroke="none" stroke-width="1" fill="none" fill-rule="evenodd">
        <g id="search-white" fill="#063959" fill-rule="nonzero">
            <path d="M237.927,0 C106.555,0 0.035,106.52 0.035,237.893 C0.035,369.266 106.555,475.786 237.928,475.786 C288.446,475.786 335.296,460.029 373.807,433.189 L373.835,433.161 L550.267,609.594 C553.541,612.868 558.747,612.952 562.106,609.594 L609.657,562.043 C612.931,558.769 612.763,553.34 609.629,550.205 L433.223,373.8 C460.063,335.261 475.82,288.41 475.82,237.893 C475.82,106.52 369.3,0 237.927,0 Z M237.927,419.811 C137.452,419.811 56.009,338.368 56.009,237.893 C56.009,137.418 137.453,55.975 237.927,55.975 C338.401,55.975 419.845,137.418 419.845,237.893 C419.845,338.368 338.402,419.811 237.927,419.811 Z" id="Shape"></path>
        </g>
    </g>
</svg>